{
    "component": "BNL-PPB2-MLS-219",
    "properties": {
        "scan_info": {
            "AMAC_ILIMIT": 100,
            "PS_ILIMIT": 155,
            "SET_VOLTAGE": [0, 0, 0, 0, 0, 0, 0, 0, 0, 0, 0, 0, 0, 0, 0, 0, 0, 0, 0, 0, 0, 0, 0, 0, 0, 0]
        },
        "sensor_type": "BARREL_LS_MODULE"
    },
    "results": {
        "CURRENT": [0.0, -105.2, -111.96, -114.79, -116.78, -119.49, -120.12, -121.92, -123.71, -124.14, -126.72, -131.43, -136.34, -139.37, -141.21, -144.05, -145.15, -147.95, -150.34, -152.99, -156.89, -251.98, -7081.11, -8539.17, -8747.64, -8670.49],
        "CURRENT_RMS": [0, 0, 0, 0, 0, 0, 0, 0, 0, 0, 0, 0, 0, 0, 0, 0, 0, 0, 0, 0, 0, 0, 0, 0, 0, 0],
        "HUMIDITY": 0.0,
        "I_500V": 0.0,
        "PS_CURRENT": [0, 0, 0, 0, 0, 0, 0, 0, 0, 0, 0, 0, 0, 0, 0, 0, 0, 0, 0, 0, 0, 0, 0, 0, 0, 0]
        ,
        "TEMPERATURE": "bypass_AMAC_20.0",
        "VBD": 124.76174926757813,
        "VOLTAGE": [0.0, -24.84, -49.84, -74.84, -99.82, -124.83, -149.84, -174.82, -199.81, -224.81, -249.8, -274.81, -299.81, -324.79, -349.79, -374.79, -399.79, -424.79, -449.79, -474.77, -499.77, -524.76, -549.77, -550.0, -550.0, -550.0]
    },
    "runNumber": "42-1",
    "testType": "MODULE_IV_AMAC"
}
