{
    "component": "SNUS12341111",
    "date": "2023-03-14T12:17:53.000Z",
    "defects": [
        {
            "description": "Breakdown early",
            "name": "BREAKDOWN",
            "properties": {
                "VBD": 197.79901123046875
            }
        }
    ],
    "passed": false,
    "problems": false,
    "properties": {
        "AMAC_CURRENT_RANGE": [
            0,
            0,
            0,
            0,
            0,
            0,
            0,
            0
        ],
        "AMAC_READINGS": 1000,
        "DCS": {
            "Module 0_current": 0.0,
            "Module 0_voltage": 0.0,
            "PST-3202-INSTEK1_current": 0.0,
            "PST-3202-INSTEK1_voltage": 11000.0,
            "PST-3202-INSTEK2_current": 0.0,
            "PST-3202-INSTEK2_voltage": 0.0
        },
        "det_info": {
            "AMAC_FuseID": "000000",
            "Module 0_model": "iseg",
            "PST-3202-INSTEK1_model": "PST-3202",
            "PST-3202-INSTEK1_serial": "EP825239",
            "PST-3202-INSTEK2_model": "PST-3202",
            "PST-3202-INSTEK2_serial": "K140283",
            "name": "BNL-PPB2-MLS-111"
        },
        "scan_info": {
            "AMAC_ILIMIT": 60,
            "PS_ILIMIT": 80,
            "SET_VOLTAGE": [
                0.0,
                -50.0,
                -100.0,
                -150.0,
                -200.0,
                -200.0,
                -200.0,
                -200.0
            ]
        },
        "sensor_type": "BARREL_LS_MODULE",
        "system_info": {
            "Firmware revision": "0xb5fb",
            "GIT URL": "https://gitlab.cern.ch/atlas-itk-strips-daq/itsdaq-sw.git/-/tree/b66a3c0ad03165aa0c32a94b0a9906602771acca",
            "GIT branch": "Coldjig_Interlocks",
            "GIT build date": "2023-03-10 20:58:33 +0000 (Fri, 10 Mar 2023)",
            "GIT commit date": "2023-03-09 03:46:24 +0000 (Thu, 09 Mar 2023)",
            "GIT describe": "itsdaq_28_6_2022-622-gb66a3c0a",
            "GIT modified": "locally modified",
            "GIT revision": "b66a3c0ad03165aa0c32a94b0a9906602771acca",
            "analysis_version": "3.43",
            "dedication": "New dedication as we're going for PPA"
        }
    },
    "results": {
        "CURRENT": [
            -22.216527938842773,
            49.55451202392578,
            53.63079071044922,
            55.71152877807617,
            55.07780838012695,
            56.439697265625,
            56.43034362792969,
            58.080657958984375
        ],
        "CURRENT_RMS": [
            0.8659076690673828,
            0.9883752465248108,
            0.9750165939331055,
            0.9964588284492493,
            1.0172852277755737,
            1.0230311155319214,
            0.9967666864395142,
            1.0413999557495117
        ],
        "HUMIDITY": 0.0,
        "I_500V": 0.0,
        "PS_CURRENT": [
            0.0,
            -4.189549922943115,
            -9.199250221252441,
            -13.597270011901855,
            -18.20462989807129,
            -18.201629638671875,
            -18.1995906829834,
            -18.199810028076172
        ],
        "TEMPERATURE": 20.0,
        "VBD": 197.79901123046875,
        "VOLTAGE": [
            0.0,
            -44.909000396728516,
            -99.68199920654297,
            -147.71099853515625,
            -197.79200744628906,
            -197.79200744628906,
            -197.7949981689453,
            -197.81399536132813
        ]
    },
    "runNumber": "203-1",
    "testType": "MODULE_IV_AMAC"
}
